…
rel_inc_long <- rel_inc %>% 
  rename(
    religion = "Religious tradition",
    n = "Sample Size"
  ) %>%
  pivot_longer(
    cols = -c(religion, n), 
    names_to = "income", 
    values_to = "proportion"
  ) %>%
  mutate(frequency = round(try*n))

rel_inc_long

## # A tibble: 48 × 5
##    religion                   n income            proportion frequency
##    <chr>                  <dbl> <chr>             <chr>          <dbl>
##  1 Buddhist                 233 Less than $30,000 36%               84
##  2 Buddhist                 233 $30,000-$49,999   18%               42
##  3 Buddhist                 233 $50,000-$99,999   32%               75
##  4 Buddhist                 233 $100,000 or more  13%               30
##  5 Catholic                6137 Less than $30,000 36%             2209
##  6 Catholic                6137 $30,000-$49,999   19%             1166
##  7 Catholic                6137 $50,000-$99,999   26%             1596
##  8 Catholic                6137 $100,000 or more  19%             1166
##  9 Evangelical Protestant  7462 Less than $30,000 35%             2612
## 10 Evangelical Protestant  7462 $30,000-$49,999   22%             1642
## # … with 38 more rows
…
<img src="{{< blogdown/postref >}}index_files/figure-html/unnamed-chunk-6-1.png" width="672" />
## Recode Plot

rel_inc_long <- rel_inc_long %>%
  mutate(religion = case_when(
    religion == "Evangelical Protestant"           ~ "Ev. Protestant",
    religion == "Historically Black Protestant"    ~ "Hist. Black Protestant",
    religion == 'Unaffiliated (religious "nones")' ~ "Unaffiliated",
    TRUE                                           ~ religion
  ))
rel_inc_long

## # A tibble: 48 × 5
##    religion           n income            proportion frequency
##    <chr>          <dbl> <chr>             <chr>          <dbl>
##  1 Buddhist         233 Less than $30,000 36%               84
##  2 Buddhist         233 $30,000-$49,999   18%               42
##  3 Buddhist         233 $50,000-$99,999   32%               75
##  4 Buddhist         233 $100,000 or more  13%               30
##  5 Catholic        6137 Less than $30,000 36%             2209
##  6 Catholic        6137 $30,000-$49,999   19%             1166
##  7 Catholic        6137 $50,000-$99,999   26%             1596
##  8 Catholic        6137 $100,000 or more  19%             1166
##  9 Ev. Protestant  7462 Less than $30,000 35%             2612
## 10 Ev. Protestant  7462 $30,000-$49,999   22%             1642
## # … with 38 more rows

Reverse Religion Order

rel_inc_long <- rel_inc_long %>%
  mutate(religion = fct_rev(religion))
rel_inc_long

## # A tibble: 48 × 5
##    religion           n income            proportion frequency
##    <fct>          <dbl> <chr>             <chr>          <dbl>
##  1 Buddhist         233 Less than $30,000 36%               84
##  2 Buddhist         233 $30,000-$49,999   18%               42
##  3 Buddhist         233 $50,000-$99,999   32%               75
##  4 Buddhist         233 $100,000 or more  13%               30
##  5 Catholic        6137 Less than $30,000 36%             2209
##  6 Catholic        6137 $30,000-$49,999   19%             1166
##  7 Catholic        6137 $50,000-$99,999   26%             1596
##  8 Catholic        6137 $100,000 or more  19%             1166
##  9 Ev. Protestant  7462 Less than $30,000 35%             2612
## 10 Ev. Protestant  7462 $30,000-$49,999   22%             1642
## # … with 38 more rows
…
